{
    "pathwayTitle": "Seguridad",
    "title": "CSRF",
    "description": "CSRF",
    "difficulty": "Intermedia",
    "time": "20-30 minutos",
    "details": {
        "steps": [
            {
                "title": "Iniciar aplicación",
                "text": "step1.md"
            }
        ],
        "intro": {
            "text": "intro.md",
            "courseData": "courseBase.sh",
            "credits": ""
        },
        "finish": {
            "text": "finish.md"
        }
    },
    "environment": {
        "showdashboard": true,
        "dashboards": [{"name": "Aplicación", "port": 80}, {"name": "-", "port": 3306}],
        "uilayout": "terminal-iframe",
        "uimessage1": "\u001b[32mTerminal interactiva.\u001b[m\r\n"
    },
    "backend": {
        "imageid": "docker",
        "port": 3306
    }
}
