{
    "pathwayTitle": "Integración continua",
    "description": "Instalar y configurar el plugin de Docker en Jenkins",
    "title": "Pipeline de Jenkins usando agente Docker",
    "description": "Construir imágenes Docker usando proyectos tipo Pipeline de Jenkins",
    "difficulty": "Intermedia",
    "time": "20-30 minutos",
    "details": {
        "steps": [
            {
                "title": "Ejecutar Jenkins",
                "text": "step1.md"
            },
            {
                "title": "Agregar agente",
                "text": "step3.md"
            },
            {
                "title": "Crear un Proyecto tipo pipeline",
                "text": "step4.md"
            },
            {
                "title": "Ejecutar el Build",
                "text": "step5.md"
            },
            {
                "title": "Ver la salida por consola",
                "text": "step6.md"
            }
        ],
        "intro": {
            "text": "intro.md",
            "courseData": "courseBase.sh",
            "credits": ""
        },
        "finish": {
            "text": "finish.md"
        }
    },
    "environment": {
        "showdashboard": true,
        "dashboards": [{"name": "Jenkins", "port": 8080}, {"name": "Aplicación", "port": 80}],
        "uilayout": "terminal-iframe",
        "uimessage1": "\u001b[32mTerminal interactiva.\u001b[m\r\n",
        "hideintro": true,
        "hidefinish": true
    },
    "backend": {
        "imageid": "docker",
        "port": 8080
    }
}
