{
    "pathwayTitle": "Integración continua",
    "title": "Maven con pruebas unitarias",
    "description": "Maven con pruebas unitarias",
    "difficulty": "Intermedia",
    "time": "30 minutos",
    "details": {
        "steps": [
            {
                "title": "Navegar entre los archivos del proyecto",
                "text": "step1.md"
            },
            {
                "title": "Compilar y ejecutar pruebas",
                "text": "step2.md"
            }
        ],
        "intro": {
            "text": "intro.md",
            "courseData": "courseBase.sh",
            "credits": ""
        },
        "finish": {
            "text": "finish.md"
        }
    },
    "environment": {
        "uilayout": "terminal-editor",
        "uimessage1": "\u001b[32mTerminal interactiva.\u001b[m\r\n",
		"hideintro": false,
		"hidefinish": false
    },
    "assets": {
      "client": [
        {
          "file": "calculadora.tar.gz",
          "target": "~/"
        }
      ]
    },
    "backend": {
        "imageid": "java8"
    }
}
