{
  "pathwayTitle": "Pathway Title",
  "title": "Scenario Title",
  "description": "Scenario Description",
  "difficulty": "beginner",
  "time": "5-10 minutes",
  "details": {
    "steps": [
      {
        "title": "Step Title",
        "text": "step1.md",
        "answer": "step1-answer.md",
        "verify": "step1-verify.sh",
        "courseData": "run-command-in-background.sh",
        "code": "run-command-in-terminal.sh"
      },
      {
        "title": "Step 2 - Step Title",
        "text": "step2.md"
      }
    ],
    "intro": {
      "text": "intro.md",
      "courseData": "courseBase.sh",
      "credits": "",
      "code": "changecd.sh"
    },
    "finish": {
      "text": "finish.md"
    },
    "assets": {
      "client": [
        {
          "file": "Dockerfile",
          "target": "~/"
        },
        {
          "file": "index.html",
          "target": "~/"
        }
      ],
      "host01": [
        {
          "file": "config.yml",
          "target": "~/"
        }
      ]
    }
  },
  "files": [
    "app.js"
  ],
  "environment": {
    "showdashboard": true,
    "dashboards": [{"name": "Tab Name", "port": 80}, {"name": "Tab Name", "port": 8080, "host": "HOST2"}],
    "uilayout": "terminal-iframe",
    "uimessage1": "\u001b[32mYour Interactive Bash Terminal. A safe place to learn and execute commands.\u001b[m\r\n"
  },
  "backend": {
    "imageid": "docker"
  }
}
