{
    "pathwayTitle": "IC",
    "title": "Scripted pipelines",
    "description": "Scripted pipelines",
    "difficulty": "Fácil",
    "time": "30 minutos",
    "details": {
        "steps": [
            {
                "title": "Dirección de Jenkins",
                "text": "step1.md"
            }
        ],
        "intro": {
            "text": "intro.md",
            "credits": "",
            "courseData": "inicial.sh"
        }
    },
    "environment": {
        "showdashboard": true,
        "dashboards": [{"name": "Aplicación", "port": 80}],
        "uilayout": "terminal-iframe",
        "uimessage1": "\u001b[32mTerminal interactiva.\u001b[m\r\n",
        "hideintro": true,
        "hidefinish": true
    },
    "backend": {
        "imageid": "docker",
        "port": 80
    }
}
