{
    "pathwayTitle": "Integración continua",
    "title": "Integración continua I",
    "description": "IC I",
    "difficulty": "Intermedia",
    "time": "15-20 minutes",
    "details": {
        "steps": [
            {
                "title": "Ejecutar Jenkins",
                "text": "step1.md"
            },
            {
                "title": "Configure plugin",
                "text": "step2.md"
            },
            {
                "title": "Agregar agent",
                "text": "step3.md"
            },
            {
                "title": "Crear un Build Project",
                "text": "step4.md"
            },
            {
                "title": "Ejecutar un Build",
                "text": "step5.md"
            },
            {
                "title": "Ver la salida por Consola",
                "text": "step6.md"
            }
        ],
        "intro": {
            "text": "intro.md",
            "courseData": "courseBase.sh",
            "credits": ""
        },
        "finish": {
            "text": "finish.md"
        }
    },
    "environment": {
        "showdashboard": true,
        "dashboards": [{"name": "Jenkins", "port": 8080}, {"name": "Gitlab", "port": 80}],
        "uilayout": "terminal-iframe",
        "uimessage1": "\u001b[32mTerminal interactiva.\u001b[m\r\n"
    },
    "backend": {
        "imageid": "jenkins",
        "port": 8080
    }
}
